%YAML 1.1
%TAG !u! tag:unity3d.com,2011:
--- !u!114 &11400000
MonoBehaviour:
  m_ObjectHideFlags: 0
  m_CorrespondingSourceObject: {fileID: 0}
  m_PrefabInstance: {fileID: 0}
  m_PrefabAsset: {fileID: 0}
  m_GameObject: {fileID: 0}
  m_Enabled: 1
  m_EditorHideFlags: 0
  m_Script: {fileID: 11500000, guid: 790358579f8c66a48a0f4135e076f208, type: 3}
  m_Name: Arrow
  m_EditorClassIdentifier: 
  MaterialType: 4
  Weigth: 8
  Nutrition: 0
  BuyValue: 0
  SellValue: 0
  Name: Arrow
  StackCounter: 4
  MaxStackCounter: 4
  Description: A simple bow!
